BT/BT4/simulation/qsim/BT4.msim.vcd
$comment
	File created using the following command:
		vcd file BT4.msim.vcd -direction
$end
$date
	Mon Mar 17 15:49:51 2025
$end
$version
	ModelSim Version 10.1d
$end
$timescale
	1ps
$end
$scope module full_adder_4bit_2_vlg_vec_tst $end
$var reg 4 ! A [3:0] $end
$var reg 4 " B [3:0] $end
$var reg 1 # Cin $end
$var wire 1 $ Cout $end
$var wire 1 % S [3] $end
$var wire 1 & S [2] $end
$var wire 1 ' S [1] $end
$var wire 1 ( S [0] $end
$var wire 1 ) sampler $end
$scope module i1 $end
$var wire 1 * gnd $end
$var wire 1 + vcc $end
$var wire 1 , unknown $end
$var tri1 1 - devclrn $end
$var tri1 1 . devpor $end
$var tri1 1 / devoe $end
$var wire 1 0 Cin~combout $end
$var wire 1 1 Add0~1_cout $end
$var wire 1 2 Add0~2_combout $end
$var wire 1 3 Add0~3 $end
$var wire 1 4 Add0~4_combout $end
$var wire 1 5 Add0~5 $end
$var wire 1 6 Add0~6_combout $end
$var wire 1 7 Add0~7 $end
$var wire 1 8 Add0~8_combout $end
$var wire 1 9 Add0~9 $end
$var wire 1 : Add0~10_combout $end
$var wire 1 ; B~combout [3] $end
$var wire 1 < B~combout [2] $end
$var wire 1 = B~combout [1] $end
$var wire 1 > B~combout [0] $end
$var wire 1 ? A~combout [3] $end
$var wire 1 @ A~combout [2] $end
$var wire 1 A A~combout [1] $end
$var wire 1 B A~combout [0] $end
$upscope $end
$upscope $end
$enddefinitions $end
#0
$dumpvars
b0 !
b1110 "
1#
0$
1(
1'
1&
1%
x)
0*
1+
x,
1-
1.
1/
10
11
12
13
14
05
16
17
18
09
0:
0>
1=
1<
1;
0B
0A
0@
0?
$end
#5000
b1000 !
b1001 !
1B
1?
0)
03
02
19
08
15
04
1:
0(
0%
07
06
0'
1$
18
0&
1%
#10000
b1011 !
b110 "
0#
b1010 !
0;
0B
1A
00
1)
08
13
12
14
01
04
02
0%
1(
1'
0'
0(
#15000
b1110 !
b100 "
b101 "
b1100 !
b1101 "
b1101 !
1>
0=
1;
1B
0A
1@
0)
03
05
18
16
14
06
1%
1&
1'
0&
#20000
b1001 "
1#
b1001 !
b1011 "
b1010 "
b1011 !
b10 "
10
1A
0@
0>
1=
0<
0;
1)
11
15
17
13
12
08
03
02
16
09
18
04
1(
0%
14
0:
0(
1&
1%
0'
1'
0$
#25000
b1010 !
b110 "
0#
b1110 !
b100 "
b1100 "
0=
1<
1;
0B
1@
00
0)
04
07
19
08
13
12
01
18
1:
05
14
02
0'
0%
1(
06
1%
1$
1'
0(
0&
#30000
b110 !
b1101 "
b100 !
b101 !
1#
b1111 "
b111 "
1>
1=
0;
1B
0A
0?
10
1)
03
09
11
15
04
0:
12
16
0'
0$
1(
1&
#35000
b1 !
b11 !
b10 !
0#
b1111 "
00
1;
0B
1A
0@
0)
01
19
08
02
14
06
13
12
1:
0%
0(
1'
0&
04
1(
1$
0'
#40000
b1011 "
b1010 !
b1110 !
b1100 !
b1101 !
1#
b11 "
1B
0A
1@
1?
0<
0;
10
1)
03
02
05
14
11
15
04
17
16
12
0(
1'
07
06
09
18
0'
1&
1(
19
08
0:
0&
1%
1:
0%
0$
1$
#45000
b10 "
b0 "
b101 !
b1 !
0@
0?
0>
0=
0)
17
16
09
18
02
05
14
08
0:
06
1&
1%
0(
1'
0%
0$
0&
#50000
b100 "
b11 !
0#
b110 "
b1011 !
1A
1?
1=
1<
00
1)
15
18
16
01
07
06
13
12
1%
1&
19
08
04
0&
1(
1:
0%
0'
1$
#55000
b1010 !
b1110 "
b1111 "
b1110 !
b1011 "
1>
0<
1;
0B
1@
0)
18
1%
#60000
1#
b110 !
b1010 "
b1110 "
10
0>
1<
0?
1)
11
02
16
08
12
0(
1&
0%
1(
#65000
b100 !
b1100 "
b100 "
0#
b0 "
0=
0<
0;
0A
00
0)
05
06
09
18
01
17
16
0:
02
0&
1%
08
1&
0$
0(
0%
#70000
b0 !
1#
b100 "
10
1<
0@
1)
11
12
1(
#75000
b1 !
b1001 !
b101 "
b1011 !
b111 "
b1111 !
0#
b11 "
1>
1=
0<
1B
1A
1@
1?
00
0)
03
15
18
01
14
07
06
02
1%
19
08
1'
0&
0(
1:
0%
1$
#80000
b1110 !
b10 "
b1100 !
b0 "
b1000 !
0>
0=
0B
0A
0@
1)
13
05
17
16
04
06
09
18
1&
0:
0'
0&
1%
0$
#85000
b0 !
b100 "
b1 !
b101 "
b111 "
b101 !
1>
1=
1<
1B
1@
0?
0)
03
14
07
08
15
04
18
1'
0%
16
0'
1%
1&
#90000
b111 !
b11 "
b11 !
0<
1A
0@
1)
17
14
08
1'
0%
#95000
b1011 !
b1010 !
b1 "
b1000 !
b101 "
b1100 !
0=
1<
0B
0A
1@
1?
0)
05
07
13
12
18
06
19
08
04
1(
1%
1:
0&
0%
0'
1$
#100000
1#
b1000 !
10
0@
1)
11
17
16
03
02
09
18
1&
14
0:
0(
1%
1'
0$
#105000
b100 "
b1010 !
0#
b1110 !
1A
1@
0>
00
0)
15
04
07
06
13
12
01
16
19
08
05
14
02
0'
0&
1(
1:
06
1&
0%
1'
0(
1$
0&
#110000
b1100 "
b110 !
b111 !
b1110 "
b101 !
1#
b1 !
1B
0A
0@
0?
1=
1;
10
1)
12
17
16
11
09
18
03
02
1(
1&
0:
15
04
1%
0(
07
06
0$
0'
19
08
0&
1:
0%
1$
#115000
b1010 "
b10 "
b1001 !
b1011 !
b1111 !
1A
1@
1?
0<
0;
0)
14
1'
#120000
b11 "
b1110 !
b1 "
b101 "
b110 !
b10 !
0B
0@
0?
1>
0=
1<
1)
09
18
04
0:
1%
0'
0$
#125000
b11 !
b1 "
b1011 !
b1111 !
0<
1B
1@
1?
0)
12
19
08
1:
1(
0%
1$
#130000
0#
b1101 !
b0 "
b101 !
b1 !
00
0>
0A
0@
0?
1)
01
02
05
14
17
16
09
18
13
12
06
08
0:
0(
1'
1&
1%
04
1(
0&
0%
0$
0'
#135000
b1000 "
b1010 "
b0 !
1#
b10 !
b1011 "
0B
1A
1>
1=
1;
10
0)
15
18
11
16
03
02
1%
14
1&
0(
1'
#140000
b1010 !
b11 "
b1011 !
0;
1B
1?
1)
12
1(
#145000
b111 "
b101 "
b1001 !
b1 !
b1101 "
b0 !
0B
0A
0?
0=
1<
1;
0)
02
05
07
06
17
16
19
08
0(
0&
09
18
1:
1&
0%
0:
1%
1$
0$
#150000
b100 !
0#
b1111 "
b1100 !
00
1=
1@
1?
1)
01
15
04
07
06
19
08
13
12
16
18
1:
0'
0&
0%
05
14
1(
1&
1%
1$
06
1'
0&
#155000
b1011 "
b11 "
b1101 !
1#
b101 !
1B
0?
0<
0;
10
0)
03
02
09
17
16
11
15
04
0:
08
12
0(
1&
07
06
0'
0$
0%
1(
18
0&
1%
#160000
b10 "
b111 !
b0 "
b1000 "
b110 !
b1110 !
0B
1A
1?
0>
0=
1;
1)
13
19
05
14
1:
17
16
1'
1$
08
1&
0%
#165000
b1100 "
0#
b1101 "
b101 "
b110 !
00
0?
1>
1<
0;
0)
01
09
03
02
07
06
13
12
0:
15
04
18
0(
0&
05
14
16
1(
0$
0'
1%
06
1'
1&
0&
#170000
b10 !
b111 "
b11 !
1#
b110 "
b1011 !
0>
1=
1B
0@
1?
10
1)
15
04
17
16
19
08
11
07
06
09
18
1:
03
02
0'
1&
0%
19
08
0:
14
0&
1%
1$
0(
1:
0%
0$
1'
1$
#175000
b1001 !
b100 "
b1000 !
0#
0=
0B
0A
00
0)
05
13
12
01
17
16
04
02
1(
09
18
1&
0'
0(
0:
1%
0$
#180000
b101 "
b111 "
b1001 !
1#
1B
1>
1=
10
1)
03
14
11
15
04
12
1'
07
06
0'
1(
19
08
0&
1:
0%
1$
#185000
b11 "
b1011 "
b1101 !
b1100 !
0B
1@
0<
1;
0)
02
18
0(
1%
#190000
b1110 !
b1010 "
b1110 "
b110 "
b1010 !
b1011 !
0>
1<
0;
1B
1A
0@
1)
08
14
0%
1'
#195000
b100 "
0#
b1001 !
b101 "
b1000 !
00
0B
0A
1>
0=
0)
01
05
13
12
17
16
04
09
18
1(
1&
0:
0'
1%
0$
#200000
b111 "
b1010 !
1A
1=
1)
15
07
06
19
08
0&
1:
0%
1$
#205000
b10 !
b11 "
b1011 "
b110 !
b1010 "
b1000 "
0>
0=
0<
1;
1@
0?
0)
02
05
14
17
16
0(
1'
09
18
1&
0:
1%
0$
#210000
1#
b111 !
b101 !
b1101 !
b1100 "
b100 "
b101 "
b111 "
10
1>
1=
1<
0;
1B
0A
1?
1)
11
03
07
06
12
15
04
19
08
0&
16
1:
1(
0'
0%
1&
1$
#215000
b1001 !
0#
b1011 !
1A
0@
00
0)
14
06
01
02
1'
0&
0(
#220000
b1010 !
b10 !
b110 !
b100 !
0B
0A
1@
0?
1)
13
12
04
16
09
18
05
14
0:
1(
0'
1&
1%
06
1'
0$
0&
#225000
b1111 "
b1101 "
b101 !
b1 !
b11 !
1B
1A
0@
0=
1;
0)
03
02
17
16
19
08
15
04
09
18
1:
0(
1&
0%
07
06
0:
0'
1%
1$
19
08
0&
0$
1:
0%
1$
#230000
b1100 "
1#
0>
10
1)
13
12
11
05
14
03
02
1(
17
16
15
04
1'
0(
09
18
07
06
1&
0'
0:
19
08
1%
0&
1:
0$
0%
1$
#235000
b1000 "
b1011 !
b0 "
b10 "
b1111 !
b1101 !
b11 "
0A
1@
1?
1>
1=
0<
0;
0)
12
1(
#240000
b101 !
b1 "
b1 !
b11 !
b0 "
0>
0=
1A
0@
0?
1)
02
17
16
09
18
08
0:
0(
1&
1%
0%
0$
#245000
0#
b10 "
b11 "
00
1>
1=
0)
01
12
14
02
1(
1'
0(
#250000
b10 !
b111 "
b1010 !
b1000 !
1#
1<
0B
0A
1?
10
1)
07
06
13
12
04
18
11
19
08
05
14
03
02
0&
1(
0'
1%
1:
17
16
15
04
0%
1'
0(
09
18
07
06
1$
1&
0'
0:
19
08
1%
0&
1:
0$
0%
1$
#255000
b101 "
b100 "
b0 "
b0 !
0#
0?
0>
0=
0<
00
0)
09
18
13
12
05
14
17
16
01
0:
04
06
08
02
1%
1(
1'
1&
0$
0'
0&
0%
0(
#260000
b1000 "
b1001 "
b1101 "
b1000 !
1#
1?
1>
1<
1;
10
1)
19
12
16
11
1:
03
02
1(
1&
14
1$
0(
1'
#265000
b1001 !
b1011 !
b1100 "
b1000 "
b11 !
0>
0<
1B
1A
0?
0)
06
15
04
09
18
16
0:
0&
0'
1%
1&
0$
#270000
b0 "
b1 !
b1001 !
0A
1?
0;
1)
05
14
06
1'
0&
#275000
b10 "
b1000 !
b11 "
b1011 "
b0 !
0B
0?
1>
1=
1;
0)
15
04
16
0'
1&
#280000
0#
b1 !
b1010 "
00
0>
1B
1)
01
13
12
05
14
1(
06
1'
0&
#285000
b101 !
b111 !
b1000 "
b0 "
b1111 !
0=
0;
1A
1@
1?
0)
16
1&
#290000
b100 "
b1110 !
b1010 !
b1000 !
b0 !
0B
0A
0@
0?
1<
1)
02
04
08
0(
0'
0%
#295000
1#
b101 "
b1 "
b100 !
b110 !
b1110 !
10
1A
1@
1?
1>
0<
0)
11
14
18
12
03
02
1'
1%
1(
15
04
0(
07
06
0'
19
08
0&
1:
0%
1$
#300000
b11 "
b1111 !
b10 "
b1011 !
b1001 !
1B
0A
0@
0>
1=
1)
17
16
09
18
1&
0:
1%
0$
#305000
b1 !
b0 "
0=
0?
0)
05
14
08
06
1'
0%
0&
#310000
b100 "
b0 !
b100 !
b110 !
0B
1A
1@
1<
1)
13
12
15
04
07
05
14
16
18
1(
0'
06
1'
1&
1%
0&
#315000
b1100 "
b1101 "
b1001 "
b111 !
1B
1>
0<
1;
0)
03
17
16
19
08
15
04
09
18
1:
1&
0%
07
06
0:
0'
1%
1$
19
08
0&
0$
1:
0%
1$
#320000
0#
b1111 !
b1 "
b0 "
b100 "
00
0>
1<
0;
1?
1)
01
02
16
13
12
0(
1&
05
14
1(
06
1'
0&
#325000
b1011 !
b11 !
b1100 "
b1101 "
b1001 "
1>
0<
1;
0@
0?
0)
03
02
17
15
04
09
18
0(
16
0:
0'
1%
1&
0$
#330000
b10 !
b1010 !
b1 "
0;
0B
1?
1)
13
12
05
14
1(
06
1'
0&
#335000
b0 "
b100 "
b10 !
0?
0>
1<
0)
08
02
16
0%
0(
1&
#340000
b110 "
b110 !
b111 !
b111 "
1B
1@
1>
1=
1)
03
07
06
15
04
14
18
16
0&
0'
1'
1%
1&
#345000
b101 !
b1111 "
b1101 "
b1100 "
0>
0=
1;
0A
0)
13
12
05
19
08
04
06
1:
1(
0%
0'
0&
1$
#350000
1#
b1000 "
b1101 !
b0 "
b10 "
10
1?
1=
0<
0;
1)
11
14
17
16
03
02
09
18
1'
1&
15
04
0:
0(
1%
07
06
0'
0$
19
08
0&
1:
0%
1$
#355000
b1100 !
b1110 !
0#
b0 "
00
0=
0B
1A
0)
01
13
12
02
05
14
1(
17
16
0(
1'
09
18
1&
0:
1%
0$
#360000
b1010 !
b100 "
b1100 "
b1000 !
1<
1;
0A
0@
1)
19
08
04
1:
0%
0'
1$
#365000
b0 !
b1 !
1#
b1110 "
b101 !
b111 !
10
1=
1B
1A
1@
0?
0)
11
15
12
07
06
09
18
03
02
16
19
08
0:
1(
0&
1%
14
1:
0(
1&
0%
0$
1'
1$
#370000
b110 !
0#
b10 !
b0 !
0B
0A
0@
00
1)
13
12
04
06
01
05
14
02
1(
0'
0&
17
16
1'
0(
09
18
1&
0:
1%
0$
#375000
b1010 "
b1 !
1#
1B
0<
10
0)
12
06
11
03
02
1(
0&
15
04
0(
16
0'
1&
#380000
b10 "
b1001 !
b1000 !
0#
0B
1?
0;
00
1)
13
12
01
05
14
02
1(
06
1'
0(
0&
#385000
b0 "
b1100 !
b1000 "
b100 !
1#
1@
0?
0=
1;
10
0)
16
04
11
12
1&
0'
1(
#390000
b1001 "
b110 !
b1011 "
b11 "
1A
1>
1=
0;
1)
15
03
02
08
07
06
14
0(
0%
18
0&
1'
1%
#395000
0#
b1 "
00
0=
0)
01
04
13
12
0'
05
14
1(
17
16
1'
08
1&
0%
#400000
b101 "
b1110 !
b1100 !
b111 "
0A
1?
1=
1<
1)
18
07
06
19
08
1%
0&
1:
0%
1$
#405000
b1000 !
b110 "
b10 "
b1010 !
0>
0<
1A
0@
0)
02
17
15
04
09
18
16
0(
0'
0:
1%
1&
0$
#410000
b1011 !
b1010 "
1;
1B
1)
19
08
12
1:
0%
1(
1$
#415000
b11 !
b1011 "
b1111 "
b1 !
b0 !
b111 "
1>
1<
0;
0B
0A
0?
0)
07
06
09
05
14
18
0:
17
16
0&
1'
08
1%
0$
1&
0%
#420000
1#
b1000 !
b110 "
b1010 !
b1011 !
10
0>
1B
1A
1?
1)
11
15
04
18
03
02
07
06
0'
1%
14
19
08
0(
0&
1:
1'
0%
1$
#425000
b100 "
b11 !
b101 "
b1 !
0A
0?
1>
0=
0)
05
09
18
12
17
16
0:
1%
1(
08
1&
0$
0%
#430000
b1101 "
b0 !
b1000 !
b1100 "
b1010 !
0B
1A
1?
0>
1;
1)
13
15
04
19
05
14
07
06
1:
0'
17
16
18
1'
0&
1$
08
1&
1%
0%
#435000
b1110 !
0#
b1101 "
b1100 !
00
1>
0A
1@
0)
01
03
02
04
07
06
13
12
14
18
0(
0'
0&
04
1(
1'
1%
0'
#440000
b1001 "
b1101 !
b101 !
b1 !
1#
b11 !
1B
1A
0@
0?
0<
10
1)
03
02
14
17
08
11
15
04
09
18
12
0(
1'
0%
16
0:
0'
1%
1(
1&
0$
#445000
b1000 "
b1011 !
0#
b1001 !
0A
1?
0>
00
0)
05
14
19
08
02
01
06
1:
13
12
1'
0%
0(
04
0&
1$
1(
0'
#450000
1#
10
1)
11
03
02
14
0(
1'
#455000
b1010 "
b1000 !
b1100 !
b1011 "
0#
0B
1@
1>
1=
00
0)
16
15
04
01
07
06
13
12
1&
0'
18
05
14
0&
1(
17
16
1%
1'
08
1&
0%
#460000
b1111 "
b100 !
b110 !
b1110 "
1#
1A
0?
0>
1<
10
1)
15
04
09
18
02
07
06
11
16
0:
19
08
12
0'
1%
0(
0&
1:
1&
0$
0%
1(
1$
#465000
b110 "
b100 "
b111 !
b1111 !
0#
1B
1?
0=
0;
00
0)
03
02
05
14
01
15
04
06
13
12
0(
1'
16
05
14
0'
0&
1(
06
1&
1'
0&
#470000
b1011 !
b110 "
b1010 !
b10 !
1=
0B
0@
0?
1)
15
04
02
17
16
09
18
07
06
08
0:
0'
0(
1&
1%
18
0&
0%
0$
1%
#475000
b10 "
b11 "
b1011 "
b1001 "
b11 !
b1011 !
1B
1?
1>
0=
0<
1;
0)
03
19
05
14
17
16
15
04
1:
06
08
1'
1&
16
0'
1$
0&
0%
1&
#480000
1#
b1101 "
b101 "
b111 "
b1010 !
10
0B
1=
1<
0;
1)
11
13
12
14
07
06
09
18
03
02
04
19
08
0:
1(
1'
0&
1%
14
1:
0(
0'
0%
0$
1'
1$
#485000
b1000 !
b1100 !
0#
b1101 !
1B
0A
1@
00
0)
12
04
16
01
02
1(
0'
1&
0(
#490000
b110 "
b101 !
b10 "
b1010 "
b1000 "
b1 !
1#
0@
0?
0>
0=
0<
1;
10
1)
17
13
12
05
14
11
09
18
04
06
03
02
1(
1'
0:
14
1%
0'
0&
0(
0$
1'
#495000
b11 !
b1001 "
b1011 "
b111 !
0#
1>
1=
1A
1@
00
0)
12
15
16
01
07
06
02
1(
1&
19
08
0&
0(
1:
0%
1$
#500000
b110 !
b1110 !
b1111 "
b111 "
b1100 !
b110 "
b1000 !
1#
0>
1<
0;
0B
0A
0@
1?
10
1)
13
04
11
05
14
12
0'
17
16
1'
1(
09
18
1&
0:
1%
0$
#505000
b100 "
b1001 !
b1 !
b0 "
b1000 "
b11 !
1B
1A
0?
0=
0<
1;
0)
03
02
06
15
04
0(
0&
16
0'
1&
#510000
b1001 "
b1011 !
b1101 "
b1001 !
0A
1?
1>
1<
1)
05
14
19
08
12
07
06
17
16
1:
18
1'
0%
1(
0&
08
1&
1$
1%
0%
#515000
b1101 !
b1100 !
b101 "
b100 !
b1 "
0<
0;
0B
1@
0?
0)
09
02
0:
0(
0$
#520000
0#
b0 "
b110 !
b111 !
b1000 "
b1111 !
00
1B
1A
1?
0>
1;
1)
01
15
04
19
13
12
07
06
1:
0'
05
14
18
1(
0&
1$
17
16
1'
1%
08
1&
0%
#525000
b1011 !
b1100 "
1#
b1101 "
b1001 !
b1000 !
b0 !
1>
1<
0B
0A
0@
0?
10
0)
04
09
18
11
0:
03
02
0'
1%
14
0$
0(
1'
#530000
b1111 "
b111 "
b100 !
b11 "
b1100 !
1@
1?
1=
0<
0;
1)
15
04
07
06
0'
19
08
0&
1:
0%
1$
#535000
0#
b10 "
b1101 !
b1001 !
b110 "
00
1B
0@
0>
1<
0)
01
13
12
05
14
1(
17
16
1'
09
18
1&
0:
1%
0$
#540000
b1011 !
b1110 "
b11 !
b10 !
b1010 "
0<
1;
0B
1A
0?
1)
06
02
15
04
16
0&
0(
0'
1&
#545000
b1000 "
1#
b110 !
b1110 !
b1111 !
10
1B
1@
1?
0=
0)
11
12
07
06
19
08
05
14
03
02
18
1:
17
16
1(
0&
0%
1'
15
04
08
0(
1%
1$
1&
07
06
0'
0%
18
0&
1%
#550000
b1100 "
b1011 !
b1010 !
0B
0@
1<
1)
13
12
05
14
1(
17
16
1'
08
1&
0%
#555000
b1101 "
b101 "
b111 "
b10 !
b11 "
b110 !
b111 !
1B
1@
0?
1>
1=
0<
0;
0)
03
09
15
04
14
0:
07
06
0'
18
1'
0$
0&
1%
#560000
b111 "
b11 !
b10 !
0B
0@
1<
1)
02
0(
#565000
0#
b110 "
b1110 "
b1100 "
b1010 !
b1110 !
00
1@
1?
0>
0=
1;
0)
01
16
19
13
12
04
02
1:
05
14
1&
1(
0'
06
0(
1$
1'
0&
#570000
b1000 "
b1111 !
1#
b1001 "
1B
1>
0<
10
1)
03
17
16
11
15
04
08
12
1&
07
06
0'
0%
1(
18
0&
1%
#575000
b1101 !
b101 !
b1 !
0A
0@
0?
0)
05
14
17
16
08
06
09
18
1'
1&
0%
0:
0&
1%
0$
#580000
b1101 "
0#
b11 !
b1011 !
b1111 !
00
1A
1@
1?
1<
1)
01
15
04
07
19
08
02
16
18
1:
0'
0%
0(
1&
1%
1$
#585000
b1111 "
b1110 "
b1010 "
b1011 !
0@
0>
1=
0<
0)
17
13
12
14
08
04
1(
1'
0%
0'
#590000
1#
b11 !
b1000 "
b1001 "
b1101 "
10
1>
0=
1<
0?
1)
11
03
02
05
14
07
06
09
18
12
15
04
17
16
19
08
0:
0(
1'
0&
1%
07
06
09
18
1:
1(
0'
1&
0%
0$
19
08
0:
0&
1%
1$
1:
0%
0$
1$
#595000
b101 "
b1 !
b101 !
b1101 !
b111 "
b11 "
0A
1@
1?
1=
0<
0;
0)
#600000
0#
b10 "
b1010 "
b1000 "
00
0>
0=
1;
1)
01
02
05
14
18
13
12
17
16
0(
1'
1%
04
08
1(
1&
0'
0%
#605000
b1001 !
1#
b1010 "
10
1=
0@
0)
11
14
06
03
02
1'
0&
15
04
0(
16
0'
1&
#610000
b1 !
b10 "
b101 !
0#
b0 "
0=
0;
1@
0?
00
1)
05
14
09
07
06
01
17
16
0:
18
13
12
1'
0&
08
04
1&
0$
1%
1(
0%
0'
#615000
b100 !
b110 !
b1 "
b1110 !
b1010 !
1#
b11 "
1>
1=
0B
1A
0@
1?
10
0)
15
06
18
11
16
03
02
0&
1%
14
1&
0(
1'
#620000
b111 "
b110 "
b10 !
b100 "
0?
0>
0=
1<
1)
08
13
12
04
07
06
05
14
18
0%
1(
0'
0&
17
16
1'
1%
08
1&
0%
#625000
b11 !
b101 "
1>
1B
0)
03
15
04
07
06
0'
18
0&
1%
#630000
b1101 "
b1001 "
0<
1;
1)
17
16
19
08
09
18
1:
1&
0%
0:
1%
1$
0$
#635000
b1 !
b101 !
b1101 !
b1100 !
0B
0A
1@
1?
0)
02
05
14
07
06
19
08
17
16
18
1:
0(
1'
0&
0%
08
1&
1%
1$
0%
#640000
b1000 "
b1100 "
b1110 !
1A
0>
1<
1)
15
04
13
12
07
06
16
05
14
18
0'
1(
0&
06
1&
1'
1%
0&
#645000
0#
b1111 !
00
1B
0)
01
03
02
13
12
15
04
0(
05
14
16
1(
0'
06
1'
1&
0&
#650000
b1101 "
b1001 "
1>
0<
1)
03
02
17
16
15
04
08
0(
1&
07
06
0'
0%
18
0&
1%
#655000
b1011 "
b11 "
b1011 !
b1001 !
b10 "
0A
0@
0>
1=
0;
0)
17
16
13
12
08
09
18
05
14
1&
1(
0%
0:
06
1%
1'
0$
0&
#660000
b1 !
1#
b110 "
b101 !
b111 "
10
1>
1<
1@
0?
1)
11
03
02
07
08
12
15
04
18
0(
0%
16
1(
0'
1%
1&
#665000
b100 !
b1111 "
1;
0B
0)
19
08
02
1:
0%
0(
1$
#670000
b1011 "
b0 !
b1010 "
b1 !
b10 "
1B
0@
0>
0<
0;
1)
17
09
18
08
0:
1%
0%
0$
#675000
b0 "
b1001 !
b1101 !
b1000 "
1@
1?
0=
1;
0)
07
06
19
05
14
18
1:
17
16
0&
1'
08
1%
1$
1&
0%
#680000
b1001 "
b1100 !
b100 !
b1 "
0B
0?
1>
0;
1)
09
0:
0$
#685000
b11 "
b0 !
b10 "
b1 !
b1001 !
1B
0@
1?
0>
1=
0)
06
18
15
04
16
0&
1%
0'
1&
#690000
b1011 !
b110 "
b1110 "
b1100 "
b1111 !
b1101 "
b1110 !
1>
0=
1<
1;
0B
1A
1@
1)
07
19
08
18
1:
0%
1%
1$
#695000
b110 !
b100 !
b1001 "
b1000 "
b101 !
0>
0<
1B
0A
0?
0)
06
05
14
08
17
16
0&
1'
0%
09
18
1&
0:
1%
0$
#700000
b0 "
b1 !
b1001 !
b1 "
b1000 !
0B
0@
1?
1>
0;
1)
06
0&
#705000
0#
b11 "
b1010 !
b1011 "
b1110 !
b1010 "
b1111 !
00
1B
1A
1@
0>
1=
1;
0)
01
15
16
19
08
13
12
07
06
1:
1&
0%
04
18
1(
0&
1$
0'
1%
#710000
b1110 "
b111 !
b1100 "
b101 !
b1 !
0A
0@
0?
0=
1<
1)
05
08
17
16
0%
09
18
1&
0:
1%
0$
#715000
b100 "
b101 "
b0 !
0B
1>
0;
0)
08
0%
#720000
1#
b1 "
b1000 !
b1001 !
10
1B
1?
0<
1)
11
03
02
18
06
12
14
0(
1%
0&
1(
1'
#725000
b1011 !
b1111 !
0#
b111 !
b110 !
0B
1A
1@
0?
00
0)
02
15
04
16
08
01
07
06
13
12
0(
0'
1&
0%
18
05
14
0&
1(
17
16
1%
1'
08
1&
0%
#730000
b11 "
b10 "
b100 !
b0 !
1#
b1000 !
b1001 !
1B
0A
0@
1?
0>
1=
10
1)
06
18
11
03
02
0&
1%
15
04
0(
16
0'
1&
#735000
b110 "
b1000 !
0B
1<
0)
13
12
07
06
05
14
19
08
1(
0&
17
16
1:
1'
0%
09
18
1&
1$
0:
1%
0$
#740000
b1110 "
b1111 "
b1100 !
b100 !
1@
0?
1>
1;
1)
07
06
03
02
19
08
15
04
0&
0(
1:
16
0%
0'
1$
1&
#745000
b1101 "
b101 !
b101 "
b100 "
b1101 !
1B
1?
0>
0=
0;
0)
05
14
06
1'
0&
#750000
b1111 !
b0 "
b10 "
b1110 !
1=
0<
0B
1A
1)
15
17
16
13
12
07
06
09
18
04
1&
1(
19
08
0:
0&
1%
0'
1:
0%
0$
1$
#755000
b1010 !
b11 "
b1000 !
b111 "
1>
1<
0A
0@
0)
03
02
05
14
15
04
17
16
0(
1'
07
06
09
18
0'
1&
19
08
0:
0&
1%
1:
0%
0$
1$
#760000
b1001 !
b1101 !
b110 "
b1111 !
b10 "
0>
0<
1B
1A
1@
1)
14
1'
#765000
b1010 "
b111 !
b1011 "
b1111 "
0?
1>
1<
1;
0)
12
16
1(
1&
#770000
b11 !
b111 "
0;
0@
1)
09
18
06
0:
1%
0&
0$
#775000
b101 "
b10 !
b0 !
b1000 !
b1 "
b1001 "
0B
0A
1?
0=
0<
1;
0)
02
05
19
17
16
06
1:
08
0(
1&
0&
1$
0%
#780000
b1100 !
b1101 !
b1111 !
b111 !
b1 "
0;
1B
1A
1@
0?
1)
09
12
15
04
16
0:
07
06
1(
0'
1&
18
0$
0&
1%
#785000
b0 "
b10 "
b11 !
b10 !
0B
0@
0>
1=
0)
13
17
16
14
04
08
1&
1'
0'
0%
#790000
b110 "
b0 !
b111 "
b101 "
b100 !
0A
1@
1>
0=
1<
1)
05
07
03
02
06
18
14
0(
0&
1%
1'
#795000
0#
b110 !
b100 "
00
0>
1A
0)
01
13
12
15
04
02
05
14
16
1(
0'
06
0(
1'
1&
0&
#800000
b1110 !
b1100 "
b1111 !
b1110 "
1#
b1101 !
b1111 "
1>
1=
1;
1B
0A
1?
10
1)
03
19
11
15
04
1:
12
16
0'
1$
1(
1&
#805000
b1011 "
b101 !
b1001 "
0#
b1000 "
0?
0>
0=
0<
00
0)
08
02
05
14
06
01
17
16
13
12
0%
0(
1'
0&
09
18
04
1&
1(
0:
1%
0'
0$
#810000
b100 !
b110 !
b1110 !
1#
b1001 "
10
1>
0B
1A
1?
1)
11
14
19
08
03
02
1:
1'
0%
15
04
0(
1$
07
06
0'
18
0&
1%
#815000
b1 "
b1100 !
0A
0;
0)
05
14
08
17
16
1'
0%
09
18
1&
0:
1%
0$
#820000
b101 "
b111 "
b1101 !
b101 !
0#
b1111 "
1B
0?
1=
1<
1;
00
1)
12
15
04
07
06
01
16
19
08
02
1(
0'
0&
1:
1&
0%
0(
1$
#825000
b111 !
b110 !
b1110 !
0B
1A
1?
0)
13
12
14
18
04
1(
1'
1%
0'
#830000
b1010 !
b1110 "
b1010 "
b10 "
b1011 !
0>
0<
0;
1B
0@
1)
17
08
09
18
0%
0:
1%
0$
#835000
1#
b1001 !
b11 "
b111 "
b1111 "
10
1>
1<
1;
0A
0)
11
03
02
07
06
19
08
05
14
12
15
04
18
1:
17
16
0(
0&
0%
1'
07
06
08
1(
0'
1%
1$
1&
18
0&
0%
1%
#840000
b1101 "
b1 !
b11 !
b1100 "
b100 "
1A
0?
0>
0=
0;
1)
09
02
0:
0(
0$
#845000
b10 !
0#
b1010 !
b1100 "
00
1;
0B
1?
0)
01
19
13
12
02
1:
05
14
1(
17
16
0(
1$
1'
08
1&
0%
#850000
b1110 "
b1000 !
b1111 "
b1001 !
1B
0A
1>
1=
1)
03
15
04
07
06
0'
18
0&
1%
#855000
b1101 !
1#
b101 !
b111 "
b101 "
b100 !
10
0=
0;
0B
1@
0?
0)
11
05
14
09
13
12
16
03
02
06
0:
04
1'
1(
1&
14
0(
0&
0$
0'
1'
#860000
b110 !
b10 !
b1010 !
1A
0@
1?
1)
15
04
17
16
19
08
07
06
09
18
1:
0'
1&
0%
19
08
0:
0&
1%
1$
1:
0%
0$
1$
#865000
b100 "
0#
b1100 "
b1110 "
b1011 !
b1001 !
b1101 !
b101 !
00
1B
0A
1@
0?
0>
1=
1;
0)
01
16
13
12
1&
05
14
1(
06
1'
0&
#870000
b1010 "
b1011 "
1#
b1001 "
b1 !
b1001 !
10
0@
1?
1>
0=
0<
1)
11
17
18
03
02
04
12
08
14
1%
0(
0'
1(
0%
1'
#875000
b1 "
b1011 !
b101 "
b100 "
b110 "
b1111 !
1A
1@
0>
1=
1<
0;
0)
15
07
02
09
18
16
19
08
0:
0(
1%
1:
1&
0%
0$
1$
#880000
b111 !
b101 !
b10 "
b11 "
b1 "
1>
0=
0<
0A
0?
1)
12
05
06
09
18
17
16
0:
1(
0&
1%
08
1&
0$
0%
