BT/BT3/simulation/qsim/BT3.msim.vcd
$comment
	File created using the following command:
		vcd file BT3.msim.vcd -direction
$end
$date
	Mon Mar 10 20:25:16 2025
$end
$version
	ModelSim Version 10.1d
$end
$timescale
	1ps
$end
$scope module BT3_vlg_vec_tst $end
$var reg 1 ! A $end
$var reg 1 " B $end
$var reg 1 # C $end
$var reg 1 $ clk $end
$var reg 1 % rst $end
$var wire 1 & Q $end
$var wire 1 ' sampler $end
$scope module i1 $end
$var wire 1 ( gnd $end
$var wire 1 ) vcc $end
$var wire 1 * unknown $end
$var tri1 1 + devclrn $end
$var tri1 1 , devpor $end
$var tri1 1 - devoe $end
$var wire 1 . comb_9|comb_4|WideNand2~0_combout $end
$var wire 1 / B~combout $end
$var wire 1 0 A~combout $end
$var wire 1 1 C~combout $end
$var wire 1 2 clk~combout $end
$var wire 1 3 rst~combout $end
$var wire 1 4 comb_9|comb_4|WideNand3~0_combout $end
$var wire 1 5 comb_9|comb_4|WideNand2~1_combout $end
$var wire 1 6 comb_9|comb_4|WideNand0~0_combout $end
$var wire 1 7 comb_9|comb_4|comb~0_combout $end
$upscope $end
$upscope $end
$enddefinitions $end
#0
$dumpvars
1!
1"
0#
0$
1%
x&
x'
0(
1)
x*
1+
1,
1-
x.
1/
10
01
02
13
x4
x5
x6
x7
$end
#803
06
#804
04
#1201
05
#1480
17
#4856
0&
#5000
0"
0%
0'
#5247
0.
#5840
0/
#5979
03
#10000
1#
1$
1"
1'
#10840
1/
11
#10979
12
#12056
14
#15000
0!
0"
0'
#15840
0/
#15850
00
#20000
1%
0#
0$
1!
1"
1'
#20840
1/
01
#20850
10
#20979
02
13
#21783
04
#25000
0%
1#
0!
0"
0'
#25840
0/
11
#25850
00
#25979
03
#30000
1$
0#
1!
1'
#30840
01
#30850
10
#30979
12
#32056
14
#40000
1"
0$
1#
0!
0'
#40840
11
1/
#40850
00
#40979
02
#42056
04
#45000
0#
1!
1'
#45840
01
#45850
10
#50000
0"
1$
1#
0'
#50840
11
0/
#50979
12
#52056
14
#55000
1%
0#
1'
#55840
01
#55979
13
#56783
04
#60000
1"
0$
0%
1#
0'
#60840
11
1/
#60979
03
02
#65000
0"
0#
1'
#65840
01
0/
#70000
0!
1$
1%
1"
1#
0'
#70840
11
1/
#70850
00
#70979
13
12
#75000
1!
0%
0"
1'
#75840
0/
#75850
10
#75979
03
#76783
14
#80000
0$
0#
0!
1%
1"
0'
#80840
1/
01
#80850
00
#80979
13
02
#81783
04
#85000
1#
0%
0"
1'
#85840
0/
11
#85979
03
#86097
1.
#90000
1$
0#
1"
0'
#90840
1/
01
#90979
12
#91056
0.
#92056
14
#95000
1%
1#
1'
#95840
11
#95912
1.
#95979
13
#96596
15
#96783
04
#97180
05
#100000
0$
0'
#100912
0.
#100979
02
#105000
1!
0%
1'
#105850
10
#105979
03
#110000
0"
1$
0'
#110840
0/
#110979
12
#112056
14
#115000
0!
1%
1'
#115850
00
#115979
13
#116783
04
#120000
1"
0$
0%
0'
#120840
1/
#120979
03
02
#125000
1!
0"
1'
#125840
0/
#125850
10
#130000
1$
1%
0!
1"
0'
#130840
1/
#130850
00
#130979
13
12
#135000
0#
1'
#135840
01
#140000
0$
0%
1!
0'
#140850
10
#140912
1.
#140979
03
02
#145000
0"
1%
0!
1'
#145840
0/
#145850
00
#145979
13
#146097
0.
#150000
1$
1"
0%
0'
#150840
1/
#150979
03
12
#152056
14
#155000
1!
1%
1'
#155850
10
#155979
13
#156056
1.
#156740
15
#156783
04
#157180
05
#160000
0$
0%
0'
#160979
03
02
#161097
0.
#165000
0!
1'
#165850
00
#170000
1$
0'
#170979
12
#171097
1.
#172056
14
#172453
15
#175000
0"
1'
#175840
0/
#180000
1!
0$
0'
#180850
10
#180979
02
#181056
0.
#181740
05
#182270
04
#185000
0!
1'
#185850
00
#190000
1$
0'
#190979
12
#192056
14
#195000
1#
1"
1'
#195840
1/
11
#200000
1%
0$
0#
0'
#200840
01
#200979
02
13
#201783
04
#205000
1!
0%
1#
1'
#205840
11
#205850
10
#205912
1.
#205979
03
#210000
1$
1%
0'
#210912
0.
#210979
13
12
#215000
0"
0!
0#
1'
#215840
01
0/
#215850
00
#220000
0$
0%
0'
#220979
03
02
#225000
1!
1%
1'
#225850
10
#225979
13
#230000
1"
1$
0!
0'
#230840
1/
#230850
00
#230979
12
#235000
1#
0"
1!
1'
#235840
0/
11
#235850
10
#236097
1.
#240000
0$
0#
0'
#240840
01
#240979
02
#241056
0.
#245000
0%
0!
1#
1'
#245840
11
#245850
00
#245979
03
#250000
1$
1%
1!
0#
0'
#250840
01
#250850
10
#250979
13
12
#255000
1"
1#
1'
#255840
11
1/
#260000
0$
0"
0#
0'
#260840
01
0/
#260979
02
#265000
0%
0!
1"
1#
1'
#265840
11
1/
#265850
00
#265979
03
#270000
1$
0"
0'
#270840
0/
#270979
12
#272056
14
#275000
1%
0#
1"
1'
#275840
1/
01
#275979
13
#276783
04
#280000
1!
0$
1#
0'
#280840
11
#280850
10
#280912
1.
#280979
02
#285000
0%
0!
0#
1'
#285840
01
#285850
00
#285912
0.
#285979
03
#290000
0"
1$
1%
1#
0'
#290840
11
0/
#290979
13
12
#291097
1.
#295000
1!
1"
0%
0#
1'
#295840
01
1/
#295850
10
#295979
03
#296056
0.
#296783
14
#300000
0$
0!
0"
0'
#300840
0/
#300850
00
#300979
02
#302056
04
#305000
1%
1"
1'
#305840
1/
#305979
13
#310000
1#
1$
0'
#310840
11
#310979
12
#311056
1.
#315000
0"
1'
#315840
0/
#315912
0.
#320000
1!
0%
0$
1"
0'
#320840
1/
#320850
10
#320979
02
03
#325000
0#
0!
1%
1'
#325840
01
#325850
00
#325979
13
#330000
1$
1#
0%
0'
#330840
11
#330979
03
12
#331097
1.
#332056
14
#332453
15
#335000
0"
1!
0#
1%
1'
#335840
01
0/
#335850
10
#335912
0.
#335979
13
#336596
05
#336783
04
#340000
0$
1"
0%
0'
#340840
1/
#340979
03
02
#350000
1$
1'
#350979
12
#352056
14
#355000
0"
0'
#355840
0/
#360000
1%
0$
1"
1'
#360840
1/
#360979
02
13
#361783
04
#365000
0!
0'
#365850
00
#370000
1#
0%
1$
0"
1'
#370840
0/
11
#370979
12
03
#371097
1.
#372056
14
#372453
15
#375000
0#
1%
1"
0'
#375840
1/
01
#375979
13
#376056
0.
#376740
05
#376783
04
#380000
0$
1#
0"
1'
#380840
0/
11
#380912
1.
#380979
02
#385000
0%
1"
0'
#385840
1/
#385979
03
#386056
0.
#390000
1$
0#
1%
0"
1'
#390840
0/
01
#390979
13
12
#395000
0%
0'
#395979
03
#396783
14
#400000
0$
1%
1'
#400979
13
02
#401783
04
#405000
1!
0'
#405850
10
#410000
1#
1$
0%
1'
#410840
11
#410979
03
12
#412056
14
#415000
1"
1%
0'
#415840
1/
#415979
13
#416783
04
#420000
0!
0$
0"
0%
1'
#420840
0/
#420850
00
#420979
03
02
#425000
0#
1!
1"
1%
0'
#425840
1/
01
#425850
10
#425979
13
#430000
1$
1#
0!
0"
0%
1'
#430840
0/
11
#430850
00
#430979
03
12
#432056
14
#435000
1"
0'
#435840
1/
#440000
0$
1%
1'
#440979
13
02
#441783
04
#445000
0#
1!
0'
#445840
01
#445850
10
#450000
0"
1$
1#
0!
1'
#450840
11
0/
#450850
00
#450979
12
#455000
0%
1!
0'
#455850
10
#455979
03
#456783
14
#460000
0$
0#
1%
1'
#460840
01
#460979
13
02
#461783
04
#465000
1"
0'
#465840
1/
#470000
1$
1#
1'
#470840
11
#470979
12
#475000
0!
0%
0'
#475850
00
#475979
03
#476783
14
#480000
0$
0#
1'
#480840
01
#480979
02
#482056
04
#485000
1!
1%
1#
0'
#485840
11
#485850
10
#485912
1.
#485979
13
#490000
0"
1$
0!
0%
0#
1'
#490840
01
0/
#490850
00
#490912
0.
#490979
03
12
#492056
14
#495000
1!
1#
0'
#495840
11
#495850
10
#500000
1"
0$
0#
1'
#500840
01
1/
#500979
02
#502056
04
#505000
1%
0"
1#
0'
#505840
11
0/
#505979
13
#510000
1$
0%
1"
0#
1'
#510840
01
1/
#510979
03
12
#512056
14
#515000
0!
0'
#515850
00
#520000
0$
0"
1#
1!
1'
#520840
11
0/
#520850
10
#520979
02
#521097
1.
#521781
15
#522310
16
#522987
07
#523390
0.
#524074
05
#525000
1%
1"
0#
0'
#525840
01
1/
#525979
13
#526056
1.
#526363
1&
#526740
15
#526782
06
#526783
04
#527180
05
#527459
17
#527862
0.
#530000
1$
0!
0"
1'
#530835
0&
#530840
0/
#530850
00
#530979
12
#535000
0%
0'
#535979
03
#536783
14
#540000
1#
0$
1!
1"
1%
1'
#540840
1/
11
#540850
10
#540979
13
02
#541783
04
#545000
0#
0"
0'
#545840
0/
01
#550000
1$
0%
1'
#550979
03
12
#552056
14
#555000
0!
1#
0'
#555840
11
#555850
00
#560000
1"
0$
1%
1!
0#
1'
#560840
01
1/
#560850
10
#560979
13
02
#561783
04
#565000
0"
0'
#565840
0/
#570000
1$
0!
1#
1'
#570840
11
#570850
00
#570979
12
#575000
1"
0'
#575840
1/
#580000
0%
0$
1!
1'
#580850
10
#580979
02
03
#585000
0#
0"
1%
0!
0'
#585840
0/
01
#585850
00
#585979
13
#590000
1$
1#
1"
0%
1'
#590840
1/
11
#590979
03
12
#592056
14
#595000
0"
0'
#595840
0/
#600000
1!
0$
0#
1%
1"
1'
#600840
1/
01
#600850
10
#600979
13
02
#601783
04
#605000
0!
1#
0%
0"
0'
#605840
0/
11
#605850
00
#605979
03
#610000
1$
1!
1%
1'
#610850
10
#610979
13
12
#615000
0%
0'
#615979
03
#616783
14
#620000
1"
0$
0!
1%
1'
#620840
1/
#620850
00
#620979
13
02
#621783
04
#625000
0#
0"
1!
0'
#625840
0/
01
#625850
10
#630000
1$
0%
1'
#630979
03
12
#632056
14
#640000
1"
0!
0$
1%
0'
#640840
1/
#640850
00
#640979
13
02
#641783
04
#646097
1.
#650000
1#
0"
1!
1$
0%
1'
#650840
0/
11
#650850
10
#650979
03
12
#652056
14
#652453
15
#655000
0!
1%
0'
#655850
00
#655979
13
#656056
0.
#656740
05
#656783
04
#660000
0$
1!
1'
#660850
10
#660979
02
#665000
0#
1"
0'
#665840
1/
01
#670000
1$
0!
0"
1'
#670840
0/
#670850
00
#670979
12
#675000
1#
0'
#675840
11
#680000
0$
0#
1'
#680840
01
#680979
02
#685000
1!
1#
0'
#685840
11
#685850
10
#690000
1"
1$
0!
1'
#690840
1/
#690850
00
#690979
12
#695000
0#
0"
0'
#695840
0/
01
#700000
0$
1#
1"
1'
#700840
1/
11
#700979
02
#705000
0%
1!
0"
0'
#705840
0/
#705850
10
#705979
03
#710000
1$
0#
1%
0!
1"
1'
#710840
1/
01
#710850
00
#710979
13
12
#715000
1#
0"
0'
#715840
0/
11
#716097
1.
#720000
0$
0%
1"
1'
#720840
1/
#720979
03
02
#721056
0.
#725000
1!
0'
#725850
10
#730000
0#
1$
0"
0!
1'
#730840
0/
01
#730850
00
#730979
12
#732056
14
#735000
1"
1!
0'
#735840
1/
#735850
10
#740000
1%
0$
1'
#740979
02
13
#741783
04
#745000
1#
0!
0'
#745840
11
#745850
00
#750000
0"
1$
1!
1'
#750840
0/
#750850
10
#750979
12
#755000
0%
0#
0!
0'
#755840
01
#755850
00
#755979
03
#756783
14
#760000
1"
0$
1!
1'
#760840
1/
#760850
10
#760979
02
#762056
04
#765000
1%
1#
0"
0!
0'
#765840
0/
11
#765850
00
#765979
13
#770000
1$
1"
1!
1'
#770840
1/
#770850
10
#770979
12
#775000
0%
0"
0'
#775840
0/
#775979
03
#776783
14
#780000
0$
1'
#780979
02
#782056
04
#785000
0#
1%
1"
0'
#785840
1/
01
#785979
13
#790000
1$
1#
0%
1'
#790840
11
#790979
03
12
#792056
14
#795000
0#
0'
#795840
01
#800000
0!
0"
0$
1%
1#
1'
#800840
11
0/
#800850
00
#800979
13
02
#801783
04
#805000
1!
0'
#805850
10
#810000
1$
0%
0#
1'
#810840
01
#810979
03
12
#812056
14
#815000
0!
0'
#815850
00
#820000
0$
1%
1'
#820979
13
02
#821783
04
#825000
1!
0'
#825850
10
#830000
1$
0!
1'
#830850
00
#830979
12
#835000
1"
1#
0%
1!
0'
#835840
11
1/
#835850
10
#835979
03
#836783
14
#840000
0$
0"
0#
1%
0!
1'
#840840
01
0/
#840850
00
#840979
13
02
#841783
04
#845000
1!
0'
#845850
10
#850000
1$
1"
1'
#850840
1/
#850979
12
#855000
1#
0%
0!
0'
#855840
11
#855850
00
#855979
03
#856783
14
#860000
0$
0#
1'
#860840
01
#860979
02
#862056
04
#865000
0"
1%
1#
0'
#865840
11
0/
#865912
1.
#865979
13
#870000
1!
1$
1"
1'
#870840
1/
#870850
10
#870979
12
#871056
0.
#875000
0%
0#
0!
0'
#875840
01
#875850
00
#875979
03
#876783
14
#880000
0$
0"
1%
1#
1!
1'
#880840
11
0/
#880850
10
#880979
13
02
#881097
1.
#881781
15
#881783
04
#882180
05
#885000
0%
0!
0'
#885850
00
#885979
03
#886056
0.
#890000
1$
0#
1%
1'
#890840
01
#890979
13
12
#895000
1"
1!
0%
0'
#895840
1/
#895850
10
#895979
03
#896783
14
#900000
0$
0"
0!
1'
#900840
0/
#900850
00
#900979
02
#902056
04
#905000
1"
0'
#905840
1/
#910000
1#
1%
1$
1!
1'
#910840
11
#910850
10
#910979
12
13
#911056
1.
#915000
0#
0%
0!
0'
#915840
01
#915850
00
#915912
0.
#915979
03
#916783
14
#920000
0"
0$
1'
#920840
0/
#920979
02
#921097
1.
#921781
15
#922310
16
#922987
07
#923390
0.
#924074
05
#925000
1%
1"
0'
#925840
1/
#925979
13
#926056
1.
#926363
1&
#926740
15
#926782
06
#926783
04
#927180
05
#927459
17
#927862
0.
#930000
1#
1$
0%
1'
#930835
0&
#930840
11
#930979
03
12
#931056
1.
#932056
14
#932453
15
#935000
1!
0"
1%
0'
#935840
0/
#935850
10
#935912
0.
#935979
13
#936596
05
#936783
04
#940000
0#
0$
0!
1"
1'
#940840
1/
01
#940850
00
#940979
02
#945000
1!
0"
0'
#945840
0/
#945850
10
#946097
1.
#950000
0%
1$
0!
1"
1'
#950840
1/
#950850
00
#950979
12
03
#951056
0.
#952056
14
#955000
1#
0'
#955840
11
#956097
1.
#956781
15
#960000
0$
0"
0#
1'
#960840
01
0/
#960912
0.
#960979
02
#961596
05
#962126
04
#965000
1!
1#
0'
#965840
11
#965850
10
#970000
1$
0!
0#
1'
#970840
01
#970850
00
#970979
12
#972056
14
#975000
1%
1#
0'
#975840
11
#975979
13
#976783
04
#980000
0$
0%
0#
1'
#980840
01
#980979
03
02
#985000
1!
0'
#985850
10
#990000
1$
1'
#990979
12
#992056
14
#995000
1"
1%
1#
0'
#995840
11
1/
#995979
13
#996783
04
