TH/Bai3/simulation/qsim/bai3.msim.vcd
$comment
	File created using the following command:
		vcd file bai3.msim.vcd -direction
$end
$date
	Fri Apr 11 22:20:49 2025
$end
$version
	ModelSim Version 10.1d
$end
$timescale
	1ps
$end
$scope module mealy_vlg_vec_tst $end
$var reg 1 ! I $end
$var reg 1 " clk $end
$var wire 1 # Y $end
$var wire 1 $ sampler $end
$scope module i1 $end
$var wire 1 % gnd $end
$var wire 1 & vcc $end
$var wire 1 ' unknown $end
$var tri1 1 ( devclrn $end
$var tri1 1 ) devpor $end
$var tri1 1 * devoe $end
$var wire 1 + I~combout $end
$var wire 1 , clk~combout $end
$var wire 1 - current_state.01~0_combout $end
$var wire 1 . current_state.01~regout $end
$var wire 1 / Selector2~0_combout $end
$var wire 1 0 current_state.10~regout $end
$var wire 1 1 Y~0_combout $end
$var wire 1 2 Y~reg0_regout $end
$upscope $end
$upscope $end
$enddefinitions $end
#0
$dumpvars
0!
0"
0#
x$
0%
1&
x'
1(
1)
1*
0+
0,
1-
0.
0/
00
01
02
$end
#5000
1"
1,
0$
1.
#10000
1!
0"
1+
0,
1$
1/
0-
#15000
1"
1,
0$
10
0.
0/
#20000
0!
0"
0+
0,
1$
11
1-
#25000
1!
1"
1+
1,
0$
01
0-
12
00
1.
1/
1#
#30000
0!
0"
0+
0,
1$
0/
1-
#35000
1!
1"
1+
1,
0$
1/
0-
02
0#
#40000
0!
0"
0+
0,
1$
0/
1-
#45000
1"
1,
0$
#50000
0"
0,
1$
#55000
1!
1"
1+
1,
0$
1/
0-
#60000
0!
0"
0+
0,
1$
0/
1-
#65000
1"
1,
0$
#70000
1!
0"
1+
0,
1$
1/
0-
#75000
0!
1"
0+
1,
0$
0/
1-
10
0.
11
#80000
0"
0,
1$
#85000
1!
1"
1+
1,
0$
01
0-
12
00
1.
1/
1#
#90000
0!
0"
0+
0,
1$
0/
1-
#95000
1!
1"
1+
1,
0$
1/
0-
02
0#
#100000
0!
0"
0+
0,
1$
0/
1-
#105000
1"
1,
0$
#110000
1!
0"
1+
0,
1$
1/
0-
#115000
1"
1,
0$
10
0.
0/
#120000
0"
0,
1$
#125000
1"
1,
0$
00
#130000
0!
0"
0+
0,
1$
1-
#135000
1!
1"
1+
1,
0$
0-
1.
1/
#140000
0!
0"
0+
0,
1$
0/
1-
#145000
1"
1,
0$
#150000
1!
0"
1+
0,
1$
1/
0-
#155000
1"
1,
0$
10
0.
0/
#160000
0!
0"
0+
0,
1$
11
1-
#165000
1"
1,
0$
12
00
1.
01
1#
#170000
1!
0"
1+
0,
1$
1/
0-
#175000
0!
1"
0+
1,
0$
0/
1-
02
10
0.
11
0#
#180000
1!
0"
1+
0,
1$
01
0-
#185000
0!
1"
0+
1,
0$
11
1-
00
01
#190000
1!
0"
1+
0,
1$
0-
#195000
0!
1"
0+
1,
0$
1-
#200000
1!
0"
1+
0,
1$
0-
#205000
0!
1"
0+
1,
0$
1-
#210000
1!
0"
1+
0,
1$
0-
#215000
1"
1,
0$
#220000
0!
0"
0+
0,
1$
1-
#225000
1!
1"
1+
1,
0$
0-
1.
1/
#230000
0"
0,
1$
#235000
1"
1,
0$
10
0.
0/
#240000
0"
0,
1$
#245000
0!
1"
0+
1,
0$
11
1-
00
01
#250000
1!
0"
1+
0,
1$
0-
#255000
1"
1,
0$
#260000
0"
0,
1$
#265000
1"
1,
0$
#270000
0"
0,
1$
#275000
0!
1"
0+
1,
0$
1-
#280000
1!
0"
1+
0,
1$
0-
#285000
1"
1,
0$
#290000
0"
0,
1$
#295000
1"
1,
0$
#300000
0"
0,
1$
#305000
1"
1,
0$
#310000
0"
0,
1$
#315000
0!
1"
0+
1,
0$
1-
#320000
1!
0"
1+
0,
1$
0-
#325000
0!
1"
0+
1,
0$
1-
#330000
1!
0"
1+
0,
1$
0-
#335000
1"
1,
0$
#340000
0!
0"
0+
0,
1$
1-
#345000
1"
1,
0$
1.
#350000
1!
0"
1+
0,
1$
1/
0-
#355000
0!
1"
0+
1,
0$
0/
1-
10
0.
11
#360000
0"
0,
1$
#365000
1"
1,
0$
12
00
1.
01
1#
#370000
1!
0"
1+
0,
1$
1/
0-
#375000
1"
1,
0$
02
10
0.
0/
0#
#380000
0!
0"
0+
0,
1$
11
1-
#385000
1"
1,
0$
12
00
1.
01
1#
#390000
0"
0,
1$
#395000
1"
1,
0$
02
0#
#400000
0"
0,
1$
#405000
1"
1,
0$
#410000
1!
0"
1+
0,
1$
1/
0-
#415000
0!
1"
0+
1,
0$
0/
1-
10
0.
11
#420000
0"
0,
1$
#425000
1"
1,
0$
12
00
1.
01
1#
#430000
1!
0"
1+
0,
1$
1/
0-
#435000
1"
1,
0$
02
10
0.
0/
0#
#440000
0"
0,
1$
#445000
1"
1,
0$
00
#450000
0"
0,
1$
#455000
0!
1"
0+
1,
0$
1-
#460000
0"
0,
1$
#465000
1!
1"
1+
1,
0$
0-
1.
1/
#470000
0"
0,
1$
#475000
1"
1,
0$
10
0.
0/
#480000
0"
0,
1$
#485000
0!
1"
0+
1,
0$
11
1-
00
01
#490000
0"
0,
1$
#495000
1"
1,
0$
1.
#500000
0"
0,
1$
#505000
1!
1"
1+
1,
0$
1/
0-
#510000
0!
0"
0+
0,
1$
0/
1-
#515000
1"
1,
0$
#520000
0"
0,
1$
#525000
1!
1"
1+
1,
0$
1/
0-
#530000
0"
0,
1$
#535000
0!
1"
0+
1,
0$
0/
1-
10
0.
11
#540000
0"
0,
1$
#545000
1"
1,
0$
12
00
1.
01
1#
#550000
0"
0,
1$
#555000
1"
1,
0$
02
0#
#560000
0"
0,
1$
#565000
1!
1"
1+
1,
0$
1/
0-
#570000
0"
0,
1$
#575000
0!
1"
0+
1,
0$
0/
1-
10
0.
11
#580000
0"
0,
1$
#585000
1"
1,
0$
12
00
1.
01
1#
#590000
0"
0,
1$
#595000
1"
1,
0$
02
0#
#600000
1!
0"
1+
0,
1$
1/
0-
#605000
1"
1,
0$
10
0.
0/
#610000
0"
0,
1$
#615000
0!
1"
0+
1,
0$
11
1-
00
01
#620000
1!
0"
1+
0,
1$
0-
#625000
0!
1"
0+
1,
0$
1-
#630000
0"
0,
1$
#635000
1!
1"
1+
1,
0$
0-
1.
1/
#640000
0"
0,
1$
#645000
0!
1"
0+
1,
0$
0/
1-
10
0.
11
#650000
1!
0"
1+
0,
1$
01
0-
#655000
1"
1,
0$
00
#660000
0"
0,
1$
#665000
1"
1,
0$
#670000
0!
0"
0+
0,
1$
1-
#675000
1!
1"
1+
1,
0$
0-
1.
1/
#680000
0"
0,
1$
#685000
0!
1"
0+
1,
0$
0/
1-
10
0.
11
#690000
0"
0,
1$
#695000
1"
1,
0$
12
00
1.
01
1#
#700000
0"
0,
1$
#705000
1"
1,
0$
02
0#
#710000
0"
0,
1$
#715000
1!
1"
1+
1,
0$
1/
0-
#720000
0"
0,
1$
#725000
1"
1,
0$
10
0.
0/
#730000
0"
0,
1$
#735000
0!
1"
0+
1,
0$
11
1-
00
01
#740000
1!
0"
1+
0,
1$
0-
#745000
1"
1,
0$
#750000
0!
0"
0+
0,
1$
1-
#755000
1"
1,
0$
1.
#760000
1!
0"
1+
0,
1$
1/
0-
#765000
1"
1,
0$
10
0.
0/
#770000
0"
0,
1$
#775000
0!
1"
0+
1,
0$
11
1-
00
01
#780000
0"
0,
1$
#785000
1!
1"
1+
1,
0$
0-
1.
1/
#790000
0"
0,
1$
#795000
1"
1,
0$
10
0.
0/
#800000
0"
0,
1$
#805000
1"
1,
0$
00
#810000
0"
0,
1$
#815000
0!
1"
0+
1,
0$
1-
#820000
0"
0,
1$
#825000
1"
1,
0$
1.
#830000
1!
0"
1+
0,
1$
1/
0-
#835000
0!
1"
0+
1,
0$
0/
1-
10
0.
11
#840000
1!
0"
1+
0,
1$
01
0-
#845000
1"
1,
0$
00
#850000
0"
0,
1$
#855000
1"
1,
0$
#860000
0"
0,
1$
#865000
0!
1"
0+
1,
0$
1-
#870000
1!
0"
1+
0,
1$
0-
#875000
0!
1"
0+
1,
0$
1-
#880000
1!
0"
1+
0,
1$
0-
#885000
1"
1,
0$
#890000
0!
0"
0+
0,
1$
1-
#895000
1!
1"
1+
1,
0$
0-
1.
1/
#900000
0!
0"
0+
0,
1$
0/
1-
#905000
1!
1"
1+
1,
0$
1/
0-
#910000
0!
0"
0+
0,
1$
0/
1-
#915000
1"
1,
0$
#920000
1!
0"
1+
0,
1$
1/
0-
#925000
0!
1"
0+
1,
0$
0/
1-
10
0.
11
#930000
1!
0"
1+
0,
1$
01
0-
#935000
1"
1,
0$
00
#940000
0!
0"
0+
0,
1$
1-
#945000
1"
1,
0$
1.
#950000
1!
0"
1+
0,
1$
1/
0-
#955000
1"
1,
0$
10
0.
0/
#960000
0"
0,
1$
#965000
1"
1,
0$
00
#970000
0!
0"
0+
0,
1$
1-
#975000
1!
1"
1+
1,
0$
0-
1.
1/
#980000
0!
0"
0+
0,
1$
0/
1-
#985000
1"
1,
0$
#990000
0"
0,
1$
#995000
1!
1"
1+
1,
0$
1/
0-
