TH/Bai1/simulation/qsim/bai1.msim.vcd
$comment
	File created using the following command:
		vcd file bai1.msim.vcd -direction
$end
$date
	Mon Mar 03 08:11:44 2025
$end
$version
	ModelSim Version 10.1d
$end
$timescale
	1ps
$end
$scope module CLA_3b_vlg_vec_tst $end
$var reg 3 ! A [2:0] $end
$var reg 3 " B [2:0] $end
$var reg 1 # Cin $end
$var wire 1 $ S [3] $end
$var wire 1 % S [2] $end
$var wire 1 & S [1] $end
$var wire 1 ' S [0] $end
$var wire 1 ( sampler $end
$scope module i1 $end
$var wire 1 ) gnd $end
$var wire 1 * vcc $end
$var wire 1 + unknown $end
$var tri1 1 , devclrn $end
$var tri1 1 - devpor $end
$var tri1 1 . devoe $end
$var wire 1 / Cin~combout $end
$var wire 1 0 s0~combout $end
$var wire 1 1 x1~combout $end
$var wire 1 2 S1~combout $end
$var wire 1 3 pc1~0_combout $end
$var wire 1 4 o1~0_combout $end
$var wire 1 5 x2~combout $end
$var wire 1 6 s2~combout $end
$var wire 1 7 o2~0_combout $end
$var wire 1 8 o2~1_combout $end
$var wire 1 9 o2~2_combout $end
$var wire 1 : A~combout [2] $end
$var wire 1 ; A~combout [1] $end
$var wire 1 < A~combout [0] $end
$var wire 1 = B~combout [2] $end
$var wire 1 > B~combout [1] $end
$var wire 1 ? B~combout [0] $end
$upscope $end
$upscope $end
$enddefinitions $end
#0
$dumpvars
b0 !
b0 "
0#
0'
0&
0%
0$
x(
0)
1*
x+
1,
1-
1.
0/
00
01
02
03
04
05
06
07
08
09
0<
0;
0:
0?
0>
0=
$end
#5000
1#
1/
0(
10
1'
#10000
b1 !
b1 "
1?
1<
1(
18
12
1&
#15000
0#
0/
0(
00
0'
#20000
b11 !
b11 "
b10 !
b10 "
0?
1>
0<
1;
1(
08
14
02
16
0&
1%
#30000
b11 !
b11 "
1?
1<
0(
18
12
1&
#35000
1#
1/
1(
10
1'
#40000
b111 !
b111 "
b101 !
b101 "
b100 !
b100 "
0?
0>
1=
0<
0;
1:
0(
08
04
02
17
19
06
0&
1$
0%
#50000
b101 !
b101 "
1?
1<
1(
18
12
1&
#60000
0#
b111 !
b111 "
b110 !
b110 "
0/
0?
1>
0<
1;
0(
08
02
00
14
16
0&
0'
1%
#65000
1#
1/
1(
10
1'
#70000
b111 !
b111 "
1?
1<
0(
18
12
1&
#75000
0#
0/
1(
00
0'
#80000
b11 !
b11 "
b1 !
b1 "
b0 !
b0 "
0?
0>
0=
0<
0;
0:
0(
08
04
02
07
09
06
0&
0$
0%
#90000
1#
b1 !
b1 "
1/
1?
1<
1(
18
12
10
1&
1'
#100000
b11 !
b11 "
0#
b10 !
b10 "
0?
1>
0<
1;
0/
0(
08
14
02
00
16
0&
0'
1%
#105000
1#
1/
1(
10
1'
#110000
b11 !
b11 "
1?
1<
0(
18
12
1&
#120000
b111 !
b111 "
b101 !
b101 "
0#
b100 !
b100 "
0?
0>
1=
0<
0;
1:
0/
1(
08
04
02
00
17
19
06
0&
0'
1$
0%
#125000
1#
1/
0(
10
1'
#130000
b101 !
b101 "
0#
1?
1<
0/
1(
18
12
00
1&
0'
#140000
b111 !
b111 "
b110 !
b110 "
0?
1>
0<
1;
0(
08
14
02
16
0&
1%
#150000
1#
b111 !
b111 "
1/
1?
1<
1(
18
12
10
1&
1'
#160000
b11 !
b11 "
b1 !
b1 "
b0 !
b0 "
0?
0>
0=
0<
0;
0:
0(
08
04
02
07
09
06
0&
0$
0%
#165000
0#
0/
1(
00
0'
#170000
b1 !
b1 "
1?
1<
0(
18
12
1&
#175000
1#
1/
1(
10
1'
#180000
b11 !
b11 "
b10 !
b10 "
0#
0?
1>
0<
1;
0/
0(
08
14
02
00
16
0&
0'
1%
#190000
b11 !
b11 "
1?
1<
1(
18
12
1&
#200000
b111 !
b111 "
b101 !
b101 "
b100 !
b100 "
0?
0>
1=
0<
0;
1:
0(
08
04
02
17
19
06
0&
1$
0%
#205000
1#
1/
1(
10
1'
#210000
b101 !
b101 "
0#
1?
1<
0/
0(
18
12
00
1&
0'
#215000
1#
1/
1(
10
1'
#220000
b111 !
b111 "
b110 !
b110 "
0?
1>
0<
1;
0(
08
14
02
16
0&
1%
#225000
0#
0/
1(
00
0'
#230000
b111 !
b111 "
1?
1<
0(
18
12
1&
#235000
1#
1/
1(
10
1'
#240000
b11 !
b11 "
b1 !
b1 "
b0 !
b0 "
0#
0?
0>
0=
0<
0;
0:
0/
0(
08
04
02
00
07
09
06
0&
0'
0$
0%
#250000
b1 !
b1 "
1#
1?
1<
1/
1(
18
12
10
1&
1'
#255000
0#
0/
0(
00
0'
#260000
b11 !
b11 "
b10 !
b10 "
0?
1>
0<
1;
1(
08
14
02
16
0&
1%
#270000
b11 !
b11 "
1?
1<
0(
18
12
1&
#275000
1#
1/
1(
10
1'
#280000
b111 !
b111 "
b101 !
b101 "
b100 !
b100 "
0#
0?
0>
1=
0<
0;
1:
0/
0(
08
04
02
00
17
19
06
0&
0'
1$
0%
#285000
1#
1/
1(
10
1'
#290000
b101 !
b101 "
0#
1?
1<
0/
0(
18
12
00
1&
0'
#300000
b111 !
b111 "
b110 !
b110 "
1#
0?
1>
0<
1;
1/
1(
08
14
02
10
16
0&
1'
1%
#305000
0#
0/
0(
00
0'
#310000
b111 !
b111 "
1#
1?
1<
1/
1(
18
12
10
1&
1'
#320000
b11 !
b11 "
b1 !
b1 "
b0 !
b0 "
0#
0?
0>
0=
0<
0;
0:
0/
0(
08
04
02
00
07
09
06
0&
0'
0$
0%
#325000
1#
1/
1(
10
1'
#330000
b1 !
b1 "
1?
1<
0(
18
12
1&
#340000
b11 !
b11 "
0#
b10 !
b10 "
0?
1>
0<
1;
0/
1(
08
14
02
00
16
0&
0'
1%
#345000
1#
1/
0(
10
1'
#350000
b11 !
b11 "
1?
1<
1(
18
12
1&
#360000
b111 !
b111 "
b101 !
b101 "
0#
b100 !
b100 "
0?
0>
1=
0<
0;
1:
0/
0(
08
04
02
00
17
19
06
0&
0'
1$
0%
#365000
1#
1/
1(
10
1'
#370000
b101 !
b101 "
0#
1?
1<
0/
0(
18
12
00
1&
0'
#380000
b111 !
b111 "
b110 !
b110 "
1#
0?
1>
0<
1;
1/
1(
08
14
02
10
16
0&
1'
1%
#385000
0#
0/
0(
00
0'
#390000
b111 !
b111 "
1#
1?
1<
1/
1(
18
12
10
1&
1'
#400000
b11 !
b11 "
b1 !
b1 "
b0 !
b0 "
0?
0>
0=
0<
0;
0:
0(
08
04
02
07
09
06
0&
0$
0%
#410000
b1 !
b1 "
1?
1<
1(
18
12
1&
#420000
b11 !
b11 "
b10 !
b10 "
0?
1>
0<
1;
0(
08
14
02
16
0&
1%
#430000
b11 !
b11 "
1?
1<
1(
18
12
1&
#435000
0#
0/
0(
00
0'
#440000
b111 !
b111 "
b101 !
b101 "
b100 !
b100 "
0?
0>
1=
0<
0;
1:
1(
08
04
02
17
19
06
0&
1$
0%
#450000
1#
b101 !
b101 "
1/
1?
1<
0(
18
12
10
1&
1'
#460000
b111 !
b111 "
0#
b110 !
b110 "
0?
1>
0<
1;
0/
1(
08
14
02
00
16
0&
0'
1%
#465000
1#
1/
0(
10
1'
#470000
b111 !
b111 "
0#
1?
1<
0/
1(
18
12
00
1&
0'
#475000
1#
1/
0(
10
1'
#480000
b11 !
b11 "
b1 !
b1 "
b0 !
b0 "
0#
0?
0>
0=
0<
0;
0:
0/
1(
08
04
02
00
07
09
06
0&
0'
0$
0%
#490000
b1 !
b1 "
1#
1?
1<
1/
0(
18
12
10
1&
1'
#500000
b11 !
b11 "
b10 !
b10 "
0#
0?
1>
0<
1;
0/
1(
08
14
02
00
16
0&
0'
1%
#505000
1#
1/
0(
10
1'
#510000
b11 !
b11 "
1?
1<
1(
18
12
1&
#520000
b111 !
b111 "
b101 !
b101 "
0#
b100 !
b100 "
0?
0>
1=
0<
0;
1:
0/
0(
08
04
02
00
17
19
06
0&
0'
1$
0%
#530000
b101 !
b101 "
1?
1<
1(
18
12
1&
#535000
1#
1/
0(
10
1'
#540000
b111 !
b111 "
b110 !
b110 "
0#
0?
1>
0<
1;
0/
1(
08
14
02
00
16
0&
0'
1%
#545000
1#
1/
0(
10
1'
#550000
b111 !
b111 "
1?
1<
1(
18
12
1&
#555000
0#
0/
0(
00
0'
#560000
b11 !
b11 "
b1 !
b1 "
b0 !
b0 "
0?
0>
0=
0<
0;
0:
1(
08
04
02
07
09
06
0&
0$
0%
#565000
1#
1/
0(
10
1'
#570000
b1 !
b1 "
0#
1?
1<
0/
1(
18
12
00
1&
0'
#580000
b11 !
b11 "
b10 !
b10 "
1#
0?
1>
0<
1;
1/
0(
08
14
02
10
16
0&
1'
1%
#590000
b11 !
b11 "
1?
1<
1(
18
12
1&
#600000
b111 !
b111 "
b101 !
b101 "
0#
b100 !
b100 "
0?
0>
1=
0<
0;
1:
0/
0(
08
04
02
00
17
19
06
0&
0'
1$
0%
#610000
1#
b101 !
b101 "
1/
1?
1<
1(
18
12
10
1&
1'
#615000
0#
0/
0(
00
0'
#620000
b111 !
b111 "
b110 !
b110 "
0?
1>
0<
1;
1(
08
14
02
16
0&
1%
#630000
1#
b111 !
b111 "
1/
1?
1<
0(
18
12
10
1&
1'
#635000
0#
0/
1(
00
0'
#640000
b11 !
b11 "
b1 !
b1 "
b0 !
b0 "
0?
0>
0=
0<
0;
0:
0(
08
04
02
07
09
06
0&
0$
0%
#645000
1#
1/
1(
10
1'
#650000
b1 !
b1 "
1?
1<
0(
18
12
1&
#660000
b11 !
b11 "
0#
b10 !
b10 "
0?
1>
0<
1;
0/
1(
08
14
02
00
16
0&
0'
1%
#665000
1#
1/
0(
10
1'
#670000
b11 !
b11 "
0#
1?
1<
0/
1(
18
12
00
1&
0'
#680000
b111 !
b111 "
b101 !
b101 "
b100 !
b100 "
0?
0>
1=
0<
0;
1:
0(
08
04
02
17
19
06
0&
1$
0%
#685000
1#
1/
1(
10
1'
#690000
b101 !
b101 "
1?
1<
0(
18
12
1&
#695000
0#
0/
1(
00
0'
#700000
b111 !
b111 "
b110 !
b110 "
1#
0?
1>
0<
1;
1/
0(
08
14
02
10
16
0&
1'
1%
#705000
0#
0/
1(
00
0'
#710000
b111 !
b111 "
1?
1<
0(
18
12
1&
#715000
1#
1/
1(
10
1'
#720000
b11 !
b11 "
b1 !
b1 "
b0 !
b0 "
0?
0>
0=
0<
0;
0:
0(
08
04
02
07
09
06
0&
0$
0%
#725000
0#
0/
1(
00
0'
#730000
b1 !
b1 "
1#
1?
1<
1/
0(
18
12
10
1&
1'
#735000
0#
0/
1(
00
0'
#740000
b11 !
b11 "
b10 !
b10 "
1#
0?
1>
0<
1;
1/
0(
08
14
02
10
16
0&
1'
1%
#745000
0#
0/
1(
00
0'
#750000
b11 !
b11 "
1#
1?
1<
1/
0(
18
12
10
1&
1'
#760000
b111 !
b111 "
b101 !
b101 "
b100 !
b100 "
0#
0?
0>
1=
0<
0;
1:
0/
1(
08
04
02
00
17
19
06
0&
0'
1$
0%
#770000
b101 !
b101 "
1?
1<
0(
18
12
1&
#775000
1#
1/
1(
10
1'
#780000
b111 !
b111 "
b110 !
b110 "
0?
1>
0<
1;
0(
08
14
02
16
0&
1%
#785000
0#
0/
1(
00
0'
#790000
b111 !
b111 "
1#
1?
1<
1/
0(
18
12
10
1&
1'
#800000
b11 !
b11 "
b1 !
b1 "
b0 !
b0 "
0#
0?
0>
0=
0<
0;
0:
0/
1(
08
04
02
00
07
09
06
0&
0'
0$
0%
#805000
1#
1/
0(
10
1'
#810000
b1 !
b1 "
0#
1?
1<
0/
1(
18
12
00
1&
0'
#820000
b11 !
b11 "
b10 !
b10 "
0?
1>
0<
1;
0(
08
14
02
16
0&
1%
#830000
1#
b11 !
b11 "
1/
1?
1<
1(
18
12
10
1&
1'
#835000
0#
0/
0(
00
0'
#840000
b111 !
b111 "
b101 !
b101 "
b100 !
b100 "
1#
0?
0>
1=
0<
0;
1:
1/
1(
08
04
02
10
17
19
06
0&
1'
1$
0%
#845000
0#
0/
0(
00
0'
#850000
b101 !
b101 "
1#
1?
1<
1/
1(
18
12
10
1&
1'
#855000
0#
0/
0(
00
0'
#860000
b111 !
b111 "
b110 !
b110 "
0?
1>
0<
1;
1(
08
14
02
16
0&
1%
#870000
b111 !
b111 "
1?
1<
0(
18
12
1&
#875000
1#
1/
1(
10
1'
#880000
b11 !
b11 "
b1 !
b1 "
b0 !
b0 "
0#
0?
0>
0=
0<
0;
0:
0/
0(
08
04
02
00
07
09
06
0&
0'
0$
0%
#885000
1#
1/
1(
10
1'
#890000
b1 !
b1 "
1?
1<
0(
18
12
1&
#895000
0#
0/
1(
00
0'
#900000
b11 !
b11 "
b10 !
b10 "
0?
1>
0<
1;
0(
08
14
02
16
0&
1%
#910000
1#
b11 !
b11 "
1/
1?
1<
1(
18
12
10
1&
1'
#915000
0#
0/
0(
00
0'
#920000
b111 !
b111 "
b101 !
b101 "
b100 !
b100 "
1#
0?
0>
1=
0<
0;
1:
1/
1(
08
04
02
10
17
19
06
0&
1'
1$
0%
#925000
0#
0/
0(
00
0'
#930000
b101 !
b101 "
1#
1?
1<
1/
1(
18
12
10
1&
1'
#940000
b111 !
b111 "
b110 !
b110 "
0#
0?
1>
0<
1;
0/
0(
08
14
02
00
16
0&
0'
1%
#945000
1#
1/
1(
10
1'
#950000
b111 !
b111 "
1?
1<
0(
18
12
1&
#960000
b11 !
b11 "
b1 !
b1 "
0#
b0 !
b0 "
0?
0>
0=
0<
0;
0:
0/
1(
08
04
02
00
07
09
06
0&
0'
0$
0%
#970000
b1 !
b1 "
1?
1<
0(
18
12
1&
#980000
b11 !
b11 "
b10 !
b10 "
0?
1>
0<
1;
1(
08
14
02
16
0&
1%
#990000
b11 !
b11 "
1?
1<
0(
18
12
1&
#995000
1#
1/
1(
10
1'
